module gitlab.com/studykim/websockets-golang

go 1.16

require (
	github.com/CloudyKit/jet/v6 v6.1.0 // indirect
	github.com/bmizerany/pat v0.0.0-20210406213842-e4b6760bdd6f // indirect
	github.com/gorilla/websocket v1.4.2 // indirect
)
